…
### `distinct()`

`distinct()` shows all the distinct values for a character or factor column. 


```r
df.starwars %>% 
  distinct(species)
```

```
# A tibble: 38 × 1
   species       
   <chr>         
 1 Human         
 2 Droid         
 3 Wookiee       
 4 Rodian        
 5 Hutt          
 6 <NA>          
 7 Yoda's species
 8 Trandoshan    
 9 Mon Calamari  
10 Ewok          
# ℹ 28 more rows
```
…
We use the functions in the package `dplyr` to manipulate our data. 

### `filter()`

`filter()` lets us apply logical (and other) operators (see Table \@ref(tab:logical-operators)) to subset the data. Here, I've filtered out the masculine characters. 


```r
df.starwars %>% 
  filter(gender == "masculine")
```

```
# A tibble: 66 × 14
   name     height  mass hair_color skin_color eye_color birth_year sex   gender
   <chr>     <int> <dbl> <chr>      <chr>      <chr>          <dbl> <chr> <chr> 
 1 Luke Sk…    172    77 blond      fair       blue            19   male  mascu…
 2 C-3PO       167    75 <NA>       gold       yellow         112   none  mascu…
 3 R2-D2        96    32 <NA>       white, bl… red             33   none  mascu…
 4 Darth V…    202   136 none       white      yellow          41.9 male  mascu…
 5 Owen La…    178   120 brown, gr… light      blue            52   male  mascu…
 6 R5-D4        97    32 <NA>       white, red red             NA   none  mascu…
 7 Biggs D…    183    84 black      light      brown           24   male  mascu…
 8 Obi-Wan…    182    77 auburn, w… fair       blue-gray       57   male  mascu…
 9 Anakin …    188    84 blond      fair       blue            41.9 male  mascu…
10 Wilhuff…    180    NA auburn, g… fair       blue            64   male  mascu…
# ℹ 56 more rows
# ℹ 5 more variables: homeworld <chr>, species <chr>, films <list>,
#   vehicles <list>, starships <list>
```

We can combine multiple conditions in the same call. Here, I've filtered out masculine characters, whose height is greater than the median height (i.e. they are in the top 50 percentile), and whose mass was not `NA`. 


```r
df.starwars %>% 
  filter(gender == "masculine",
         height > median(height, na.rm = T),
         !is.na(mass))
```

```
# A tibble: 26 × 14
   name     height  mass hair_color skin_color eye_color birth_year sex   gender
   <chr>     <int> <dbl> <chr>      <chr>      <chr>          <dbl> <chr> <chr> 
 1 Darth V…    202 136   none       white      yellow          41.9 male  mascu…
 2 Biggs D…    183  84   black      light      brown           24   male  mascu…
 3 Obi-Wan…    182  77   auburn, w… fair       blue-gray       57   male  mascu…
 4 Anakin …    188  84   blond      fair       blue            41.9 male  mascu…
 5 Chewbac…    228 112   brown      unknown    blue           200   male  mascu…
 6 Boba Fe…    183  78.2 black      fair       brown           31.5 male  mascu…
 7 IG-88       200 140   none       metal      red             15   none  mascu…
 8 Bossk       190 113   none       green      red             53   male  mascu…
 9 Qui-Gon…    193  89   brown      fair       blue            92   male  mascu…
10 Nute Gu…    191  90   none       mottled g… red             NA   male  mascu…
# ℹ 16 more rows
# ℹ 5 more variables: homeworld <chr>, species <chr>, films <list>,
#   vehicles <list>, starships <list>
```
…
The starwars characters that have either a `"dark"` or a `"pale"` skin tone, or whose sex is `"hermaphroditic"`, and whose height is at least `170` cm. The `%in%` operator is useful when there are multiple options. Instead of `skin_color %in% c("dark", "pale")`, I could have also written `skin_color == "dark" | skin_color == "pale"` but this gets cumbersome as the number of options increases. 

### `arrange()`

`arrange()` allows us to sort the values in a data frame by one or more column entries. 


```r
df.starwars %>% 
  arrange(hair_color, desc(height))
```

```
# A tibble: 87 × 14
   name     height  mass hair_color skin_color eye_color birth_year sex   gender
   <chr>     <int> <dbl> <chr>      <chr>      <chr>          <dbl> <chr> <chr> 
 1 Mon Mot…    150  NA   auburn     fair       blue            48   fema… femin…
 2 Wilhuff…    180  NA   auburn, g… fair       blue            64   male  mascu…
 3 Obi-Wan…    182  77   auburn, w… fair       blue-gray       57   male  mascu…
 4 Bail Pr…    191  NA   black      tan        brown           67   male  mascu…
 5 Gregar …    185  85   black      dark       brown           NA   <NA>  <NA>  
 6 Biggs D…    183  84   black      light      brown           24   male  mascu…
 7 Boba Fe…    183  78.2 black      fair       brown           31.5 male  mascu…
 8 Quarsh …    183  NA   black      dark       brown           62   male  mascu…
 9 Jango F…    183  79   black      tan        brown           66   male  mascu…
10 Lando C…    177  79   black      dark       brown           31   male  mascu…
# ℹ 77 more rows
# ℹ 5 more variables: homeworld <chr>, species <chr>, films <list>,
#   vehicles <list>, starships <list>
```
Here, I've sorted the data frame first by `hair_color`, and then by `height`. I've used the `desc()` function to sort `height` in descending order. Bail Prestor Organa is the tallest black character in starwars. 

### `rename() `

`rename()` renames column names.


```r
df.starwars %>% 
  rename(person = name,
         mass_kg = mass)
```

```
# A tibble: 87 × 14
   person height mass_kg hair_color skin_color eye_color birth_year sex   gender
   <chr>   <int>   <dbl> <chr>      <chr>      <chr>          <dbl> <chr> <chr> 
 1 Luke …    172      77 blond      fair       blue            19   male  mascu…
 2 C-3PO     167      75 <NA>       gold       yellow         112   none  mascu…
 3 R2-D2      96      32 <NA>       white, bl… red             33   none  mascu…
 4 Darth…    202     136 none       white      yellow          41.9 male  mascu…
 5 Leia …    150      49 brown      light      brown           19   fema… femin…
 6 Owen …    178     120 brown, gr… light      blue            52   male  mascu…
 7 Beru …    165      75 brown      light      blue            47   fema… femin…
 8 R5-D4      97      32 <NA>       white, red red             NA   none  mascu…
 9 Biggs…    183      84 black      light      brown           24   male  mascu…
10 Obi-W…    182      77 auburn, w… fair       blue-gray       57   male  mascu…
# ℹ 77 more rows
# ℹ 5 more variables: homeworld <chr>, species <chr>, films <list>,
#   vehicles <list>, starships <list>
```

The new variable names goes on the LHS of the`=` sign, and the old name on the RHS.  

To rename all variables at the same time use `rename_with()`: 


```r
df.starwars %>%
  rename_with(.fn = ~ toupper(.))
```

```
# A tibble: 87 × 14
   NAME     HEIGHT  MASS HAIR_COLOR SKIN_COLOR EYE_COLOR BIRTH_YEAR SEX   GENDER
   <chr>     <int> <dbl> <chr>      <chr>      <chr>          <dbl> <chr> <chr> 
 1 Luke Sk…    172    77 blond      fair       blue            19   male  mascu…
 2 C-3PO       167    75 <NA>       gold       yellow         112   none  mascu…
 3 R2-D2        96    32 <NA>       white, bl… red             33   none  mascu…
 4 Darth V…    202   136 none       white      yellow          41.9 male  mascu…
 5 Leia Or…    150    49 brown      light      brown           19   fema… femin…
 6 Owen La…    178   120 brown, gr… light      blue            52   male  mascu…
 7 Beru Wh…    165    75 brown      light      blue            47   fema… femin…
 8 R5-D4        97    32 <NA>       white, red red             NA   none  mascu…
 9 Biggs D…    183    84 black      light      brown           24   male  mascu…
10 Obi-Wan…    182    77 auburn, w… fair       blue-gray       57   male  mascu…
# ℹ 77 more rows
# ℹ 5 more variables: HOMEWORLD <chr>, SPECIES <chr>, FILMS <list>,
#   VEHICLES <list>, STARSHIPS <list>
```

Notice that I used the `~` here in the function call. I will explain what this does shortly. 

### `relocate()`

`relocate()` moves columns. For example, the following piece of code moves the `species` column to the front of the data frame: 


```r
df.starwars %>% 
  relocate(species)
```

```
# A tibble: 87 × 14
   species name    height  mass hair_color skin_color eye_color birth_year sex  
   <chr>   <chr>    <int> <dbl> <chr>      <chr>      <chr>          <dbl> <chr>
 1 Human   Luke S…    172    77 blond      fair       blue            19   male 
 2 Droid   C-3PO      167    75 <NA>       gold       yellow         112   none 
 3 Droid   R2-D2       96    32 <NA>       white, bl… red             33   none 
 4 Human   Darth …    202   136 none       white      yellow          41.9 male 
 5 Human   Leia O…    150    49 brown      light      brown           19   fema…
 6 Human   Owen L…    178   120 brown, gr… light      blue            52   male 
 7 Human   Beru W…    165    75 brown      light      blue            47   fema…
 8 Droid   R5-D4       97    32 <NA>       white, red red             NA   none 
 9 Human   Biggs …    183    84 black      light      brown           24   male 
10 Human   Obi-Wa…    182    77 auburn, w… fair       blue-gray       57   male 
# ℹ 77 more rows
# ℹ 5 more variables: gender <chr>, homeworld <chr>, films <list>,
#   vehicles <list>, starships <list>
```

We could also move the `species` column after the name column like so: 


```r
df.starwars %>% 
  relocate(species, .after = name)
```

```
# A tibble: 87 × 14
   name    species height  mass hair_color skin_color eye_color birth_year sex  
   <chr>   <chr>    <int> <dbl> <chr>      <chr>      <chr>          <dbl> <chr>
 1 Luke S… Human      172    77 blond      fair       blue            19   male 
 2 C-3PO   Droid      167    75 <NA>       gold       yellow         112   none 
 3 R2-D2   Droid       96    32 <NA>       white, bl… red             33   none 
 4 Darth … Human      202   136 none       white      yellow          41.9 male 
 5 Leia O… Human      150    49 brown      light      brown           19   fema…
 6 Owen L… Human      178   120 brown, gr… light      blue            52   male 
 7 Beru W… Human      165    75 brown      light      blue            47   fema…
 8 R5-D4   Droid       97    32 <NA>       white, red red             NA   none 
 9 Biggs … Human      183    84 black      light      brown           24   male 
10 Obi-Wa… Human      182    77 auburn, w… fair       blue-gray       57   male 
# ℹ 77 more rows
# ℹ 5 more variables: gender <chr>, homeworld <chr>, films <list>,
#   vehicles <list>, starships <list>
```

### `select()`

`select()` allows us to select a subset of the columns in the data frame. 


```r
df.starwars %>% 
  select(name, height, mass)
```

```
# A tibble: 87 × 3
   name               height  mass
   <chr>               <int> <dbl>
 1 Luke Skywalker        172    77
 2 C-3PO                 167    75
 3 R2-D2                  96    32
 4 Darth Vader           202   136
 5 Leia Organa           150    49
 6 Owen Lars             178   120
 7 Beru Whitesun Lars    165    75
 8 R5-D4                  97    32
 9 Biggs Darklighter     183    84
10 Obi-Wan Kenobi        182    77
# ℹ 77 more rows
```

We can select multiple columns using the `(from:to)` syntax: 


```r
df.starwars %>%  
  select(name:birth_year) # from name to birth_year
```

```
# A tibble: 87 × 7
   name               height  mass hair_color    skin_color eye_color birth_year
   <chr>               <int> <dbl> <chr>         <chr>      <chr>          <dbl>
 1 Luke Skywalker        172    77 blond         fair       blue            19  
 2 C-3PO                 167    75 <NA>          gold       yellow         112  
 3 R2-D2                  96    32 <NA>          white, bl… red             33  
 4 Darth Vader           202   136 none          white      yellow          41.9
 5 Leia Organa           150    49 brown         light      brown           19  
 6 Owen Lars             178   120 brown, grey   light      blue            52  
 7 Beru Whitesun Lars    165    75 brown         light      blue            47  
 8 R5-D4                  97    32 <NA>          white, red red             NA  
 9 Biggs Darklighter     183    84 black         light      brown           24  
10 Obi-Wan Kenobi        182    77 auburn, white fair       blue-gray       57  
# ℹ 77 more rows
```

Or use a variable for column selection: 


```r
columns = c("name", "height", "species")

df.starwars %>% 
  select(one_of(columns)) # useful when using a variable for column selection
```

```
# A tibble: 87 × 3
   name               height species
   <chr>               <int> <chr>  
 1 Luke Skywalker        172 Human  
 2 C-3PO                 167 Droid  
 3 R2-D2                  96 Droid  
 4 Darth Vader           202 Human  
 5 Leia Organa           150 Human  
 6 Owen Lars             178 Human  
 7 Beru Whitesun Lars    165 Human  
 8 R5-D4                  97 Droid  
 9 Biggs Darklighter     183 Human  
10 Obi-Wan Kenobi        182 Human  
# ℹ 77 more rows
```

We can also _deselect_ (multiple) columns:


```r
df.starwars %>% 
  select(-name, -(birth_year:vehicles))
```

```
# A tibble: 87 × 6
   height  mass hair_color    skin_color  eye_color starships
    <int> <dbl> <chr>         <chr>       <chr>     <list>   
 1    172    77 blond         fair        blue      <chr [2]>
 2    167    75 <NA>          gold        yellow    <chr [0]>
 3     96    32 <NA>          white, blue red       <chr [0]>
 4    202   136 none          white       yellow    <chr [1]>
 5    150    49 brown         light       brown     <chr [0]>
 6    178   120 brown, grey   light       blue      <chr [0]>
 7    165    75 brown         light       blue      <chr [0]>
 8     97    32 <NA>          white, red  red       <chr [0]>
 9    183    84 black         light       brown     <chr [1]>
10    182    77 auburn, white fair        blue-gray <chr [5]>
# ℹ 77 more rows
```

And select columns by partially matching the column name:


```r
df.starwars %>% 
  select(contains("_")) # every column that contains the character "_"
```

```
# A tibble: 87 × 4
   hair_color    skin_color  eye_color birth_year
   <chr>         <chr>       <chr>          <dbl>
 1 blond         fair        blue            19  
 2 <NA>          gold        yellow         112  
 3 <NA>          white, blue red             33  
 4 none          white       yellow          41.9
 5 brown         light       brown           19  
 6 brown, grey   light       blue            52  
 7 brown         light       blue            47  
 8 <NA>          white, red  red             NA  
 9 black         light       brown           24  
10 auburn, white fair        blue-gray       57  
# ℹ 77 more rows
```


```r
df.starwars %>% 
  select(starts_with("h")) # every column that starts with an "h"
```

```
# A tibble: 87 × 3
   height hair_color    homeworld
    <int> <chr>         <chr>    
 1    172 blond         Tatooine 
 2    167 <NA>          Tatooine 
 3     96 <NA>          Naboo    
 4    202 none          Tatooine 
 5    150 brown         Alderaan 
 6    178 brown, grey   Tatooine 
 7    165 brown         Tatooine 
 8     97 <NA>          Tatooine 
 9    183 black         Tatooine 
10    182 auburn, white Stewjon  
# ℹ 77 more rows
```

We can rename some of the columns using `select()` like so: 


```r
df.starwars %>% 
  select(person = name, height, mass_kg = mass)
```

```
# A tibble: 87 × 3
   person             height mass_kg
   <chr>               <int>   <dbl>
 1 Luke Skywalker        172      77
 2 C-3PO                 167      75
 3 R2-D2                  96      32
 4 Darth Vader           202     136
 5 Leia Organa           150      49
 6 Owen Lars             178     120
 7 Beru Whitesun Lars    165      75
 8 R5-D4                  97      32
 9 Biggs Darklighter     183      84
10 Obi-Wan Kenobi        182      77
# ℹ 77 more rows
```

#### `where()`

`where()` is a useful helper function that comes in handy, for example, when we want to select columns based on their data type. 


```r
df.starwars %>% 
  select(where(fn = is.numeric)) # just select numeric columns
```

```
# A tibble: 87 × 3
   height  mass birth_year
    <int> <dbl>      <dbl>
 1    172    77       19  
 2    167    75      112  
 3     96    32       33  
 4    202   136       41.9
 5    150    49       19  
 6    178   120       52  
 7    165    75       47  
 8     97    32       NA  
 9    183    84       24  
10    182    77       57  
# ℹ 77 more rows
```

The following selects all columns that are not numeric: 


```r
df.starwars %>% 
  select(where(fn = ~ !is.numeric(.))) # selects all columns that are not numeric
```

```
# A tibble: 87 × 11
   name     hair_color skin_color eye_color sex   gender homeworld species films
   <chr>    <chr>      <chr>      <chr>     <chr> <chr>  <chr>     <chr>   <lis>
 1 Luke Sk… blond      fair       blue      male  mascu… Tatooine  Human   <chr>
 2 C-3PO    <NA>       gold       yellow    none  mascu… Tatooine  Droid   <chr>
 3 R2-D2    <NA>       white, bl… red       none  mascu… Naboo     Droid   <chr>
 4 Darth V… none       white      yellow    male  mascu… Tatooine  Human   <chr>
 5 Leia Or… brown      light      brown     fema… femin… Alderaan  Human   <chr>
 6 Owen La… brown, gr… light      blue      male  mascu… Tatooine  Human   <chr>
 7 Beru Wh… brown      light      blue      fema… femin… Tatooine  Human   <chr>
 8 R5-D4    <NA>       white, red red       none  mascu… Tatooine  Droid   <chr>
 9 Biggs D… black      light      brown     male  mascu… Tatooine  Human   <chr>
10 Obi-Wan… auburn, w… fair       blue-gray male  mascu… Stewjon   Human   <chr>
# ℹ 77 more rows
# ℹ 2 more variables: vehicles <list>, starships <list>
```

Note that I used `~` here to indicate that I'm creating an anonymous function to check whether column type is numeric. A one-sided formula (expression beginning with `~`) is interpreted as `function(x)`, and wherever `x` would go in the function is represented by `.`.

So, I could write the same code like so: 


```r
df.starwars %>% 
  select(where(function(x) !is.numeric(x))) # selects all columns that are not numeric
```

```
# A tibble: 87 × 11
   name     hair_color skin_color eye_color sex   gender homeworld species films
   <chr>    <chr>      <chr>      <chr>     <chr> <chr>  <chr>     <chr>   <lis>
 1 Luke Sk… blond      fair       blue      male  mascu… Tatooine  Human   <chr>
 2 C-3PO    <NA>       gold       yellow    none  mascu… Tatooine  Droid   <chr>
 3 R2-D2    <NA>       white, bl… red       none  mascu… Naboo     Droid   <chr>
 4 Darth V… none       white      yellow    male  mascu… Tatooine  Human   <chr>
 5 Leia Or… brown      light      brown     fema… femin… Alderaan  Human   <chr>
 6 Owen La… brown, gr… light      blue      male  mascu… Tatooine  Human   <chr>
 7 Beru Wh… brown      light      blue      fema… femin… Tatooine  Human   <chr>
 8 R5-D4    <NA>       white, red red       none  mascu… Tatooine  Droid   <chr>
 9 Biggs D… black      light      brown     male  mascu… Tatooine  Human   <chr>
10 Obi-Wan… auburn, w… fair       blue-gray male  mascu… Stewjon   Human   <chr>
# ℹ 77 more rows
# ℹ 2 more variables: vehicles <list>, starships <list>
```
…
### `mutate() `

`mutate()` is used to change existing columns or make new ones. 


```r
df.starwars %>% 
  mutate(height = height / 100, # to get height in meters
         bmi = mass / (height^2)) %>% # bmi = kg / (m^2)
  select(name, height, mass, bmi)
```

```
# A tibble: 87 × 4
   name               height  mass   bmi
   <chr>               <dbl> <dbl> <dbl>
 1 Luke Skywalker       1.72    77  26.0
 2 C-3PO                1.67    75  26.9
 3 R2-D2                0.96    32  34.7
 4 Darth Vader          2.02   136  33.3
 5 Leia Organa          1.5     49  21.8
 6 Owen Lars            1.78   120  37.9
 7 Beru Whitesun Lars   1.65    75  27.5
 8 R5-D4                0.97    32  34.0
 9 Biggs Darklighter    1.83    84  25.1
10 Obi-Wan Kenobi       1.82    77  23.2
# ℹ 77 more rows
```
…
